module gitlab.com/andrewn/avitrack_exporter

go 1.17

require (
	github.com/itchyny/gojq v0.12.8
	github.com/prometheus/client_golang v1.12.2
)

require (
	github.com/beorn7/perks v1.0.1 // indirect
	github.com/cespare/xxhash/v2 v2.1.2 // indirect
	github.com/golang/protobuf v1.5.2 // indirect
	github.com/itchyny/timefmt-go v0.1.3 // indirect
	github.com/matttproud/golang_protobuf_extensions v1.0.1 // indirect
	github.com/prometheus/client_model v0.2.0 // indirect
	github.com/prometheus/common v0.32.1 // indirect
	github.com/prometheus/procfs v0.7.3 // indirect
	golang.org/x/sys v0.0.0-20220520151302-bc2c85ada10a // indirect
	google.golang.org/protobuf v1.26.0 // indirect
)
